{
  "file_generated_by": "FlutterFire CLI",
  "purpose": "FirebaseAppID & ProjectID for this Firebase app in this directory",
  "GOOGLE_APP_ID": "1:1087164970618:ios:d7aec9b1ff0855717aedc3",
  "FIREBASE_PROJECT_ID": "memeorize-92e80",
  "GCM_SENDER_ID": "1087164970618"
}