{
  "project_info": {
    "project_number": "1087164970618",
    "project_id": "memeorize-92e80",
    "storage_bucket": "memeorize-92e80.appspot.com"
  },
  "client": [
    {
      "client_info": {
        "mobilesdk_app_id": "1:1087164970618:android:1a00562d75ae36167aedc3",
        "android_client_info": {
          "package_name": "com.example.memeorize"
        }
      },
      "oauth_client": [],
      "api_key": [
        {
          "current_key": "AIzaSyBBHtNHJLHuPhyVtOgFHUMpkA7JH-AIKcQ"
        }
      ],
      "services": {
        "appinvite_service": {
          "other_platform_oauth_client": []
        }
      }
    }
  ],
  "configuration_version": "1"
}